<svg width="881" height="236" viewBox="0 0 881 236" fill="none" xmlns="http://www.w3.org/2000/svg">
<path fill-rule="evenodd" clip-rule="evenodd" d="M0.549072 235.967H259.727C349.538 235.967 370.387 196.098 370.387 157.803C370.387 121.408 341.517 107.167 319.051 102.109C341.517 98.6244 373.263 83.4389 373.263 52.1018C373.263 22.0347 354.021 0.520996 292.113 0.520996H38.4165L0.560002 235.956L0.549072 235.967ZM143.292 86.8472L146.743 63.3037H226.96C240.429 63.3037 246.388 65.6049 246.388 73.7783C246.388 81.9518 241.689 86.8472 225.398 86.8472H143.292ZM127.435 173.184L132.08 141.793H222.131C242.068 141.793 246.388 147.589 246.388 155.437C246.388 163.285 242.73 173.184 218.148 173.184H127.435V173.184ZM413.334 94.7059L404.988 149.63H872.441L880.798 94.7059H413.345H413.334Z" fill="rgb(245, 220, 220)"/>
</svg>
