<svg xmlns="http://www.w3.org/2000/svg" width="21" height="24" viewBox="0 0 21 24">
    <path fill="#F5DCDC" fill-rule="evenodd" d="M15.285 11.923h1.577V4.605L12.414 0H0v20.802h11.31l-1.558-1.576H1.576V1.576h9.376v4.492h4.333v5.855zm-3.171.653v-1.662h1.572v-.825h-1.572V9.073h1.811v-.847h-2.906v4.35h1.095zm-3.92-.936h-.519V9.163h.507c.72 0 1.116.439 1.116 1.238 0 .787-.402 1.239-1.105 1.239zm.105.943c.603 0 1.116-.202 1.483-.585.374-.39.571-.941.571-1.597 0-1.306-.828-2.183-2.064-2.183H6.586v4.365H8.3zM3.901 10.18V9.089h.44c.356 0 .635.13.635.546 0 .41-.28.546-.63.546h-.445zm.017 2.413v-1.531h.627c.879 0 1.412-.55 1.412-1.433 0-.824-.544-1.423-1.395-1.423H2.938v4.387h.98zm16.979 5.657h-2.148V13.75a.154.154 0 0 0-.154-.155h-5.066a.154.154 0 0 0-.154.155v4.502h-2.147a.103.103 0 0 0-.073.176l4.725 4.725c.101.1.263.1.364 0l4.726-4.725a.103.103 0 0 0-.073-.176z"/>
</svg>
